{
	"id": "641a1684-3dff-4a33-aa14-66fc15f8fdbb",
	"name": "url",
	"values": [
		{
			"key": "url",
			"value": "https://ef02d514-064f-4a19-8d28-7f63e734fea4.mock.pstmn.io",
			"enabled": true
		}
	],
	"_postman_variable_scope": "environment",
	"_postman_exported_at": "2021-11-23T09:37:39.908Z",
	"_postman_exported_using": "Postman/9.1.3"
}